{
  "content": [
    {
      "id": "M8u9joYBTig8lBEvoHvx",
      "county": "Broome",
      "licenseNumber": "30363",
      "establishmentType": "JAC",
      "entityName": "MIRABITO HOLDINGS INC",
      "dbaName": "QUICKWAY FOOD STORE #74",
      "streetNumber": "3622",
      "streetName": "NYS RT 79",
      "city": "HARPURSVILLE",
      "stateAbbreviation": "NY",
      "zipCode": "13787",
      "squareFootage": "4000",
      "location": null
    },
    {
      "id": "N8u9joYBTig8lBEvoHvx",
      "county": "Erie",
      "licenseNumber": "703857",
      "establishmentType": "JAC",
      "entityName": "142 GRANT ST LLC",
      "dbaName": "SAVE A LOT",
      "streetNumber": "142",
      "streetName": "GRANT ST",
      "city": "BUFFALO",
      "stateAbbreviation": "NY",
      "zipCode": "14213",
      "squareFootage": "9000",
      "location": {
        "lat": -78.890665,
        "lon": 42.917892
      }
    }
  ],
  "pageable": {
    "sort": {
      "empty": true,
      "sorted": false,
      "unsorted": true
    },
    "offset": 0,
    "pageSize": 20,
    "pageNumber": 0,
    "paged": true,
    "unpaged": false
  },
  "last": false,
  "totalPages": 500,
  "totalElements": 10000,
  "size": 20,
  "number": 0,
  "sort": {
    "empty": true,
    "sorted": false,
    "unsorted": true
  },
  "first": true,
  "numberOfElements": 20,
  "empty": false
}